HTTP/1.0 200 OK
Date: Tue, 29 Nov 2011 15:13:31 GMT
Server: Apache
X-Powered-By: PHP/5.2.6-1+lenny13
Set-Cookie: dHJhY2tpbml0aWFsbGFuZGluZ2FuZHJlZmVycmVy=eyJ0IjoiTGFuZGluZ1VybCIsInIiOm51bGwsImciOiJcL29hcGlcL2RvY3VtZW50c1wvc2VhcmNoXC90aXRsZSUzQUhvdyUyMFJlbGlhYmxlJTIwYXJlJTIwdGhlJTIwTWV0aG9kcyUyMGZvciUyMEVzdGltYXRpbmclMjBSZXBlcnRvaXJlJTIwU2l6ZSUzRlwvP2NvbnN1bWVyX2tleT01YmEzNjA2ZDI4YWExYmU5NGU5YzU4NTAyYjkwYTQ5YzA0ZGMxNzI4OSIsImQiOjEzMjI1Nzk2MTF9; expires=Wed, 30-Nov-2011 15:13:31 GMT; path=/
Set-Cookie: csrf_token=8bfa5248d32dcef2fc66ab0b966ae577606aa92e; path=/; domain=.mendeley.com
Set-Cookie: features=%7B%22sneaky_lazy_bucketest%22%3Atrue%2C%22sign_up_bucketest%22%3Atrue%2C%22client_signup_upsell_buckettest%22%3Afalse%2C%22article_signup_test%22%3Afalse%2C%22article_signup_banner_test%22%3Afalse%2C%22signup_funnel_echo_bucket_test%22%3Afalse%2C%22signup_funnel_foxtrot_bucket_test%22%3Atrue%2C%22signup_funnel_gamma_bucket_test%22%3Atrue%7D; path=/
X-RateLimit-Remaining: 4998
Pragma: no-cache
Expires: Mon, 01 Jan 1970 00:00:00 UTC
Cache-Control: no-cache, no-store, max-age=0, s-maxage=0, must-revalidate, pre-check=0, post-check=0
Vary: Cookie
Content-Type: application/json
X-Cache: MISS from http1.gs2.chonp.net
X-Cache-Lookup: MISS from http1.gs2.chonp.net:80
Via: 1.1 http1.gs2.chonp.net:80 (squid/2.7.STABLE3)
Connection: close

{"documents":[{"uuid":"ffc1f600-c78a-11df-b837-0024e8453de6","title":"How reliable are the methods for estimating repertoire size?","publication_outlet":"Ethology formerly Zeitschrift fur Tierpsychologie","year":2008,"mendeley_url":"http:\/\/www.mendeley.com\/research\/how-reliable-are-the-methods-for-estimating-repertoire-size-1\/","doi":"10.1111\/j.1439-0310.2008.01576.x","authors":[{"forename":"Carlos A","surname":"Botero"},{"forename":"Andrew E","surname":"Mudge"},{"forename":"Amanda M","surname":"Koltz"},{"forename":"Wesley M","surname":"Hochachka"},{"forename":"Sandra L","surname":"Vehrencamp"}]},{"uuid":"02c92b10-6d00-11df-8e55-0026b95e43ca","title":"How Reliable are the Methods for Estimating Repertoire Size?","publication_outlet":"Ethology","year":2008,"mendeley_url":"http:\/\/www.mendeley.com\/research\/reliable-methods-estimating-repertoire-size\/","doi":null,"authors":[{"forename":"C A","surname":"Botero"},{"forename":"A E","surname":"Mudget"},{"forename":"A M","surname":"Koltz"},{"forename":"W M","surname":"Hichachkat"},{"forename":"S L","surname":"Veherencamp"}]},{"uuid":"29994570-6d0c-11df-a2b2-0026b95e3eb7","title":"How reliable are dung counts for estimating elephant numbers?","publication_outlet":"African Journal of Ecology","year":2001,"mendeley_url":"http:\/\/www.mendeley.com\/research\/how-reliable-are-dung-counts-for-estimating-elephant-numbers\/","doi":"10.1046\/j.1365-2028.2001.00266.x","authors":[{"forename":"R F W","surname":"Barnes"}]},{"uuid":"0f563b50-ce96-11df-922b-0024e8453de6","title":"How reliable are our vegetation analyses?","publication_outlet":"Journal of Vegetation Science","year":1992,"mendeley_url":"http:\/\/www.mendeley.com\/research\/how-reliable-are-our-vegetation-analyses\/","doi":"10.2307\/3236006","authors":[{"forename":"Jan","surname":"Lep\u0161"},{"forename":"Vera","surname":"Hadincov\u00e1"}]},{"uuid":"b1d42a60-6d05-11df-afb8-0026b95d30b2","title":"How Reliable are Density Estimates for Diurnal Primates?","publication_outlet":"International Journal of Primatology","year":2008,"mendeley_url":"http:\/\/www.mendeley.com\/research\/reliable-density-estimates-diurnal-primates\/","doi":"10.1007\/s10764-008-9301-6","authors":[{"forename":"Heather M","surname":"Hassel-Finnegan"},{"forename":"Carola","surname":"Borries"},{"forename":"Eileen","surname":"Larney"},{"forename":"Mayuree","surname":"Umponjan"},{"forename":"Andreas","surname":"Koenig"}]},{"uuid":"10fe37e0-9620-11df-96dc-0024e8453de8","title":"How reliable is the monitoring of permanent vegetation plots? A test with multiple observers","publication_outlet":"Journal of Vegetation Science","year":2007,"mendeley_url":"http:\/\/www.mendeley.com\/research\/reliable-monitoring-permanent-vegetation-plots-test-multiple-observers-9\/","doi":"10.1658\/1100-9233(2007)18[413:HRITMO]2.0.CO;2","authors":[{"forename":"Pascal","surname":"Vittoz"},{"forename":"Antoine","surname":"Guisan"}]},{"uuid":"e2a7fbf0-6d08-11df-a474-0026b95e3e23","title":"How accurate are measurements on MRI? A study on multiple sclerosis using reliable 3D stereological methods.","publication_outlet":"Journal of Magnetic Resonance Imaging","year":1999,"mendeley_url":"http:\/\/www.mendeley.com\/research\/accurate-measurements-mri-study-multiple-sclerosis-using-reliable-3d-stereological-methods\/","doi":null,"authors":[{"forename":"P","surname":"Gadeberg"},{"forename":"H J","surname":"Gundersen"},{"forename":"F","surname":"T\u00e5geh\u00f8j"}]},{"uuid":"2b727340-6d01-11df-afb8-0026b95d30b2","title":"How many samples are required to estimate a reliable REML variogram?","publication_outlet":"Geostats 2008 8th International Geostatistics Congress","year":2008,"mendeley_url":"http:\/\/www.mendeley.com\/research\/how-many-samples-are-required-to-estimate-a-reliable-reml-variogram\/","doi":null,"authors":[{"forename":"Ruth","surname":"Kerry"},{"forename":"Benjamin R","surname":"Ingram"},{"forename":"Pierre","surname":"Goovaerts"},{"forename":"Margaret A","surname":"Oliver"}]},{"uuid":"b22c7f60-6d0c-11df-a474-0026b95e3e23","title":"How reliable is length-based determination of body weight and tracheal tube size in the paediatric age group? The Broselow tape reconsidered.","publication_outlet":"British Journal of Anaesthesia","year":2002,"mendeley_url":"http:\/\/www.mendeley.com\/research\/reliable-lengthbased-determination-body-weight-tracheal-tube-size-paediatric-age-group-broselow-tape-reconsidered\/","doi":null,"authors":[{"forename":"C K","surname":"Hofer"},{"forename":"M","surname":"Ganter"},{"forename":"M","surname":"Tucci"},{"forename":"R","surname":"Klaghofer"},{"forename":"A","surname":"Zollinger"}]},{"uuid":"793b9620-6d00-11df-8e55-0026b95e43ca","title":"Spatial-temporal stratifications in natural populations and how they affect understanding and estimation of effective population size.","publication_outlet":"Molecular ecology resources","year":2010,"mendeley_url":"http:\/\/www.mendeley.com\/research\/spatialtemporal-stratifications-natural-populations-affect-understanding-estimation-effective-population-size\/","doi":"10.1111\/j.1755-0998.2010.02876.x","authors":[{"forename":"Robin S","surname":"Waples"}]},{"uuid":"a77ed920-6d00-11df-a2b2-0026b95e3eb7","title":"How many patients are needed to provide reliable evaluations of individual clinicians?","publication_outlet":"Medical Care","year":2004,"mendeley_url":"http:\/\/www.mendeley.com\/research\/how-many-patients-are-needed-to-provide-reliable-evaluations-of-individual-clinicians\/","doi":null,"authors":[{"forename":"Eugene C","surname":"Nelson"},{"forename":"Mary A","surname":"Gentry"},{"forename":"Kathryn H","surname":"Mook"},{"forename":"Karen L","surname":"Spritzer"},{"forename":"John H","surname":"Higgins"},{"forename":"Ron D","surname":"Hays"}]},{"uuid":"152fe620-6d0c-11df-936c-0026b95e484c","title":"How Reliable is a Stemma? An Analysis of Chaucer's Miller's Tale","publication_outlet":"Lit Linguist Computing","year":2003,"mendeley_url":"http:\/\/www.mendeley.com\/research\/reliable-stemma-analysis-chaucers-millers-tale\/","doi":"10.1093\/llc\/18.4.407","authors":[{"forename":"Matthew","surname":"Spencer"},{"forename":"Barbara","surname":"Bordalejo"},{"forename":"Peter","surname":"Robinson"},{"forename":"Christopher J","surname":"Howe"}]},{"uuid":"9d5d8f30-6d06-11df-a474-0026b95e3e23","title":"Internationalizing the Broselow tape: how reliable is weight estimation in Indian children.","publication_outlet":"Academic emergency medicine official journal of the Society for Academic Emergency Medicine","year":2008,"mendeley_url":"http:\/\/www.mendeley.com\/research\/internationalizing-broselow-tape-reliable-weight-estimation-indian-children\/","doi":null,"authors":[{"forename":"Naresh","surname":"Ramarajan"},{"forename":"Rajesh","surname":"Krishnamoorthi"},{"forename":"Matthew","surname":"Strehlow"},{"forename":"James","surname":"Quinn"},{"forename":"Swaminatha V","surname":"Mahadevan"}]},{"uuid":"be6cbf70-6d0b-11df-a474-0026b95e3e23","title":"Variation in hominid brain size: how much is due to method?","publication_outlet":"Homo internationale Zeitschrift fur die vergleichende Forschung am Menschen","year":2001,"mendeley_url":"http:\/\/www.mendeley.com\/research\/variation-hominid-brain-size-much-due-method\/","doi":null,"authors":[{"forename":"C","surname":"De Miguel"},{"forename":"M","surname":"Henneberg"}]},{"uuid":"71253330-6d0d-11df-afb8-0026b95d30b2","title":"How reliable are reliability studies of fracture classifications? A systematic review of their methodologies.","publication_outlet":"Acta Orthopaedica Scandinavica","year":2004,"mendeley_url":"http:\/\/www.mendeley.com\/research\/reliable-reliability-studies-fracture-classifications-systematic-review-methodologies\/","doi":null,"authors":[{"forename":"Laurent","surname":"Audig\u00e9"},{"forename":"Mohit","surname":"Bhandari"},{"forename":"James","surname":"Kellam"}]},{"uuid":"f2362b50-6d03-11df-a474-0026b95e3e23","title":"How do respiratory state and measurement method affect bra size calculations?","publication_outlet":"British Journal of Sports Medicine","year":2006,"mendeley_url":"http:\/\/www.mendeley.com\/research\/respiratory-state-measurement-method-affect-bra-size-calculations\/","doi":"10.1136\/bjsm.2005.025171","authors":[{"forename":"D E","surname":"McGhee"},{"forename":"J R","surname":"Steele"}]},{"uuid":"7cc5a740-6d00-11df-a2b2-0026b95e3eb7","title":"How many species of prokaryotes are there?","publication_outlet":"Proceedings of the National Academy of Sciences of the United States of America","year":2002,"mendeley_url":"http:\/\/www.mendeley.com\/research\/how-many-species-of-prokaryotes-are-there\/","doi":"10.1073\/pnas.162359199","authors":[{"forename":"Bess B","surname":"Ward"}]},{"uuid":"03ff4f30-6d02-11df-a2b2-0026b95e3eb7","title":"How many species of shore fishes are there in the Tropical Eastern Pacific ?","publication_outlet":"Journal of Biogeography","year":2006,"mendeley_url":"http:\/\/www.mendeley.com\/research\/guimaraes-nestedness-current-biologyd0700556\/","doi":"10.1111\/j.1365-2699.2006.01586.x","authors":[{"forename":"Fernando A","surname":"Zapata"},{"forename":"D Ross","surname":"Robertson"}]},{"uuid":"eb826370-6d01-11df-a2b2-0026b95e3eb7","title":"How many branchiopod crustacean species are there? Quantifying the components of underestimation","publication_outlet":"Global Ecology and Biogeography","year":2005,"mendeley_url":"http:\/\/www.mendeley.com\/research\/branchiopod-crustacean-species-quantifying-components-underestimation\/","doi":"10.1111\/j.1466-822x.2005.00164.x","authors":[{"forename":"S J","surname":"Adamowicz"},{"forename":"A","surname":"Purvis"}]},{"uuid":"239183c0-6d04-11df-afb8-0026b95d30b2","title":"How effective for fold recognition is a potential of mean force that includes relative orientations between contacting residues in proteins?","publication_outlet":"The Journal of chemical physics","year":2005,"mendeley_url":"http:\/\/www.mendeley.com\/research\/how-effective-for-fold-recognition-is-a-potential-of-mean-force-that-includes-relative-orientations-between-contacting-residues-in-proteins\/","doi":null,"authors":[{"forename":"Sanzo","surname":"Miyazawa"},{"forename":"Robert L","surname":"Jernigan"}]}],"total_results":32,"total_pages":2,"current_page":0,"items_per_page":20}